{
  "cviceni": {
    "version": {
      "global": "<%= version %>",
      "content": 2
    },
    "language": "en",
    "katalog": [
      "public",
      "test"
    ],
    "id": 7,
    "slug": "the-village-of-horni-vysokes-transformation",
    "nazev": "The Village of Horní Vysoké’s Transformation",
    "autor": [
      "Terezie Vávrová"
    ],
    "klicovaSlova": [
      "consequences of the World War I",
      "countryside",
      "modernization",
      "cause and consequences",
      "questioning"
    ],
    "anotace": {
      "ucitel": "This activity illustrates the historical change in a concrete village. Students compare photographs of the same place in the village from 1925 and 2004, looking for similarities and differences. The approach of this simple descriptive work (like a “find 10 differences” activity for young students) should motivate students to develop an interest to investigate the historical events that could have caused the changes they see. This activity can be connected with an explanation of the transformations in Czech society after the end of the Second World War (the expulsion of the German minority) and transformations in the Czech lands, including processes like urbanization, collectivization, etc.",
      "verejna": "What can photographs of one place taken 80 years apart tell us? The places around us really don’t change so radically — but still! What could have influenced what the village looks like today? How has life there changed? Look at the photographs, and the more differences you find, the more you’ll find out about the transformations in the Czech lands."
    },
    "trvani": 25,
    "funkce": [
      "lupa",
      "text",
      "svg",
      "znacky"
    ],
    "pdf": {
      "doporucenyPostup": "the-village-of-horni-vysokes-transformation.pdf"
    },
    "uvodniObrazek": "the-village-of-horni-vysokes-transformation/pic-00-1280w.jpg"
  },
  "slajd": [
    {
      "zadani": {
        "hlavni": "The photographs show the same place. Have a look at both of them.",
        "rozsirujici": ""
      },
      "napoveda": {
        "aktivity": [
          "lupa"
        ],
        "text": "When you left click on the image, you can magnify sections of it."
      },
      "prameny": [
        "the-village-of-horni-vysokes-transformation/pic-00-1280w.jpg",
        "the-village-of-horni-vysokes-transformation/pic-01-1280w.jpg"
      ],
      "popisky": [
        "Ober-Weissig, 1925. Source: Antikomplex, z.s.",
        "Horní Vysoké, 2004. Source: Antikomplex, z.s."
      ]
    },
    {
      "class": "half-slide-previous",
      "zadani": {
        "hlavni": "What changed?",
        "rozsirujici": "Mark the elements that stayed the same with a blue dot and a caption. Mark the ones that changed with a red dot and a caption."
      },
      "napoveda": {
        "aktivity": [
          "svg"
        ],
        "text": "You create marks by left clicking on the photo with the mouse. When you right click, you open a menu offering the following operations: change the color of the mark, (T) write a comment, (X) delete the mark. "
      },
      "svg": {
        "soubory": [
          {
            "id": "svg-1",
            "soubor": "the-village-of-horni-vysokes-transformation/pic-00-1024w.jpg",
            "funkce": [
              "text",
              "znacky"
            ]
          },
          {
            "id": "svg-2",
            "soubor": "the-village-of-horni-vysokes-transformation/pic-01-1024w.jpg",
            "funkce": [
              "text",
              "znacky"
            ]
          }
        ]
      },
      "popisky": [
        "Ober-Weissig, 1925. Source: Antikomplex, z.s.",
        "Horní Vysoké, 2004. Source: Antikomplex, z.s."
      ]
    },
    {
      "class": "half-slide-active",
      "zadani": {
        "hlavni": "Why did it change?",
        "rozsirujici": ""
      },
      "napoveda": {
        "aktivity": [
          "text"
        ],
        "text": "Write answers to the questions or other comments into the text box (as assigned)."
      },
      "uzivatelskyText": {
        "otazky": [
          {
            "id": "text-1",
            "zadani": "Try to think about what might have led to the highlighted changes. Make a list of events that could have influenced this transformation, and give reasons why.",
            "instrukce": "I think that…",
            "minDelka": 10,
            "maxDelka": 400
          },
          {
            "id": "text-2",
            "zadani": "From the photographs, try to figure out how the building’s function and life in the village changed.",
            "instrukce": "I think that…",
            "minDelka": 10,
            "maxDelka": 400
          }
        ]
      }
    }
  ]
}
